[gd_scene load_steps=3 format=1]

[ext_resource path="res://Scripts/laserbeam.gd" type="Script" id=1]

[sub_resource type="ConvexPolygonShape2D" id=1]

custom_solver_bias = 0.0
points = Vector2Array( 0, 0, 5, 0, 5, 3, 0, 3 )

[node name="RigidBody2D" type="RigidBody2D" groups=[
"beams",
]]

z/z = -2
input/pickable = false
shapes/0/shape = SubResource( 1 )
shapes/0/transform = Matrix32( 1, 0, 0, 1, 0, 0 )
shapes/0/trigger = false
collision/layers = 1
collision/mask = 1
mode = 2
mass = 0.00102041
friction = 0.0
bounce = 0.0
gravity_scale = 0.0
custom_integrator = false
continuous_cd = 0
contacts_reported = 2
contact_monitor = true
sleeping = false
can_sleep = true
velocity/linear = Vector2( 0, 0 )
velocity/angular = 0.0
damp_override/linear = -1.0
damp_override/angular = -1.0
script/script = ExtResource( 1 )

[node name="Polygon2D" type="Polygon2D" parent="."]

polygon = Vector2Array( 0, 0, 5, 0, 5, 3, 0, 3 )
uv = Vector2Array(  )
color = Color( 1, 0, 0, 1 )
vertex_colors = ColorArray(  )
offset = Vector2( 0, 0 )
texture/texture = null
texture/offset = Vector2( 0, 0 )
texture/scale = Vector2( 1, 1 )
texture/rotation = 0.0
invert/enable = false
invert/border = 100.0


